<svg width="28" height="32" viewBox="0 0 28 32" fill="none" xmlns="http://www.w3.org/2000/svg">
<path d="M14.2872 0.0270014C15.9945 0 17.692 0.0160009 19.3876 0C19.4903 2.04111 20.2084 4.12022 21.6701 5.5633C23.1289 7.04238 25.1923 7.71941 27.2 7.94842V13.3177C25.3186 13.2547 23.4283 12.8547 21.721 12.0266C20.9774 11.6826 20.2847 11.2396 19.6067 10.7866C19.5979 14.6828 19.6224 18.574 19.5823 22.4542C19.4805 24.3183 18.8788 26.1734 17.8182 27.7095C16.1119 30.2666 13.1503 31.9337 10.1085 31.9857C8.24273 32.0947 6.3789 31.5747 4.78902 30.6166C2.15422 29.0285 0.300171 26.1214 0.0301354 23.0012C-0.0038785 22.3404 -0.00910178 21.6784 0.0144811 21.0171C0.249295 18.48 1.47717 16.0529 3.38308 14.4018C5.54336 12.4787 8.56952 11.5626 11.4029 12.1046C11.4293 14.0798 11.3521 16.0529 11.3521 18.028C10.0576 17.5999 8.54506 17.7199 7.41404 18.523C6.58656 19.0802 5.96123 19.9 5.63435 20.8561C5.36431 21.5322 5.44161 22.2832 5.45726 23.0012C5.76741 25.1893 7.82594 27.0284 10.0234 26.8294C11.4802 26.8134 12.8764 25.9494 13.6356 24.6843C13.8812 24.2413 14.1561 23.7883 14.1708 23.2672C14.299 20.8821 14.2481 18.507 14.2637 16.1219C14.2745 10.7466 14.2481 5.38629 14.2882 0.0280015L14.2872 0.0270014Z" fill="url(#paint0_linear_215_7345)"/>
<defs>
<linearGradient id="paint0_linear_215_7345" x1="-6.57488e-05" y1="18" x2="27.1999" y2="18" gradientUnits="userSpaceOnUse">
<stop stop-color="#5E3033"/>
<stop offset="0.0741131" stop-color="#985727"/>
<stop offset="0.330194" stop-color="#C5944F"/>
<stop offset="0.474238" stop-color="#F6E6B7"/>
<stop offset="0.600301" stop-color="#C7934D"/>
<stop offset="0.918337" stop-color="#965525"/>
<stop offset="1" stop-color="#5E3033"/>
</linearGradient>
</defs>
</svg>
